template
…
ℹ Use `spec()` to retrieve the full column specification for this data.
ℹ Specify the column types or set `show_col_types = FALSE` to quiet this message.

--- Data Loaded: municipalities_population.csv ---

--- Structure of Data ---
Rows: 59
Columns: 5
$ Obec             <chr> "Banská Bystrica", "Zvolen", "Detva", "Brezno", "Žarn…
$ Okres            <chr> "Banská Bystrica", "Zvolen", "Detva", "Brezno", "Žarn…
$ Kraj             <chr> "Banskobystrický", "Banskobystrický", "Banskobystrick…
$ Pocet_obyvatelov <dbl> 76000, 43000, 15000, 32000, 6000, 7200, 8000, 28000, …
$ Rozloha_km2      <dbl> 103.4, 98.0, 71.2, 126.5, 42.1, 46.2, 88.4, 47.3, 72.…
# A tibble: 59 × 5
   Obec            Okres           Kraj            Pocet_obyvatelov Rozloha_km2
   <chr>           <chr>           <chr>                      <dbl>       <dbl>
 1 Banská Bystrica Banská Bystrica Banskobystrický            76000       103. 
 2 Zvolen          Zvolen          Banskobystrický            43000        98  
 3 Detva           Detva           Banskobystrický            15000        71.2
 4 Brezno          Brezno          Banskobystrický            32000       126. 
 5 Žarnovica       Žarnovica       Banskobystrický             6000        42.1
 6 Nová Baňa       Žarnovica       Banskobystrický             7200        46.2
 7 Krupina         Krupina         Banskobystrický             8000        88.4
 8 Lučenec         Lučenec         Banskobystrický            28000        47.3
 9 Rimavská Sobota Rimavská Sobota Banskobystrický            33000        72.1
10 Revúca          Revúca          Banskobystrický            12000        63.5
# ℹ 49 more rows
…
